{
    "app-id": "org.remmina.Remmina",
    "runtime": "org.gnome.Platform",
    "runtime-version": "3.38",
    "sdk": "org.gnome.Sdk",
    "command": "remmina",
    "cleanup": [
        "*.a",
        "*.la",
        "/build-aux",
        "/include",
        "/lib/cmake",
        "/lib/pkgconfig",
        "/share/gnome-session",
        "/share/gtk-doc",
        "/share/man",
        "/share/pkgconfig",
        "/share/xsessions"
    ],
    "finish-args": [
        "--share=ipc",
        "--share=network",
        "--socket=cups",
        "--socket=fallback-x11",
        "--socket=pcsc",
        "--socket=pulseaudio",
        "--socket=ssh-auth",
        "--socket=wayland",
        "--socket=x11",
        "--env=DCONF_USER_CONFIG_DIR=.config/dconf",
        "--device=all",
        "--talk-name=ca.desrt.dconf",
        "--talk-name=org.gtk.vfs.*",
        "--talk-name=org.freedesktop.portal.Fcitx",
        "--talk-name=org.freedesktop.Notifications",
        "--talk-name=org.freedesktop.secrets",
        "--talk-name=org.kde.StatusNotifierWatcher",
        "--talk-name=org.kde.kwalletd5",
        "--talk-name=com.canonical.indicator.application",
        "--talk-name=org.ayatana.indicator.application",
        "--talk-name=org.gnome.Shell",
        "--talk-name=com.canonical.Unity",
        "--system-talk-name=org.freedesktop.Avahi",
        "--filesystem=home",
        "--filesystem=xdg-download"
    ],
    "add-extensions": {
        "org.freedesktop.Platform.ffmpeg-full": {
            "directory": "lib/ffmpeg",
            "version": "20.08",
            "add-ld-path": ".",
            "no-autodownload": false,
            "autodelete": false
        },
        "org.freedesktop.Platform.openh264": {
            "directory": "lib/openh264",
            "version": "2.1.0",
            "add-ld-path": "."
        }
    },
    "cleanup-commands": [
        "mkdir -p /app/lib/ffmpeg",
        "mkdir -p /app/lib/openh264"
    ],
    "modules": [
        "shared-modules/intltool/intltool-0.51.json",
        "shared-modules/dbus-glib/dbus-glib-0.110.json",
        "shared-modules/libappindicator/libappindicator-gtk3-12.10.json",
        "shared-modules/libusb/libusb.json",
        {
            /**
            * libfreerdp uses xprop to try to detect keyboard layout
            */
            "name": "xprop",
            "sources": [
                {
                    "type": "archive",
                    "url": "https://xorg.freedesktop.org/archive/individual/app/xprop-1.2.5.tar.bz2",
                    "sha256": "9b92ed0316bf2486121d8bac88bd1878f16b43bd335f18009b1f941f1eca93a1",
                    "x-checker-data": {
                        "type": "anitya",
                        "project-id": "14958",
                        "url-template": "https://xorg.freedesktop.org/archive/individual/app/xprop-$version.tar.bz2"
                    }
                }
            ]
        },
        {
            "name": "libcups",
            "make-args": ["libs"],
            "no-make-install": true,
            "post-install": [
                "make install-headers install-libs"
            ],
            "sources": [
                {
                    "type": "git",
                    "url": "https://github.com/OpenPrinting/cups.git",
                    "tag": "v2.3.3op2",
                    "commit": "3b566f73587ffa8ad9690f2399efc4508b3a9016",
                    "x-checker-data": {
                        "type": "git",
                        "tag-pattern": "^v([\\d.]+)$"
                    }
                }
            ]
        },
        {
            "name": "gtk-vnc",
            "buildsystem": "meson",
            "sources": [
                {
                    "type": "archive",
                    "url": "https://download.gnome.org/sources/gtk-vnc/1.2/gtk-vnc-1.2.0.tar.xz",
                    "sha256": "7aaf80040d47134a963742fb6c94e970fcb6bf52dc975d7ae542b2ef5f34b94a"
                }
            ]
        },
        {
            "name": "vte",
            "buildsystem": "meson",
            "sources": [
                {
                    "type": "git",
                    "url": "https://gitlab.gnome.org/GNOME/vte.git",
                    "tag": "0.64.1",
                    "commit": "109a6cf6e05ef55b79f768a30fdf95723ebba0d3",
                    "x-checker-data": {
                        "type": "git",
                        "tag-pattern": "^([\\d.]+)$"
                    }
                }
            ]
        },
        {
            "name": "avahi",
            "cleanup": [
                "/bin",
                "/lib/avahi",
                "/share/applications/*.desktop",
                "/share/avahi"
            ],
            "config-opts": [
                "--with-distro=none",
                "--disable-gobject",
                "--disable-introspection",
                "--disable-qt3",
                "--disable-qt4",
                "--disable-qt5",
                "--disable-gtk",
                "--disable-core-docs",
                "--disable-manpages",
                "--disable-libdaemon",
                "--disable-python",
                "--disable-pygobject",
                "--disable-mono",
                "--disable-monodoc",
                "--disable-autoipd",
                "--disable-doxygen-doc",
                "--disable-doxygen-dot",
                "--disable-doxygen-xml",
                "--disable-doxygen-html",
                "--disable-manpages",
                "--disable-xmltoman"
            ],
            "sources": [
                {
                    "type": "archive",
                    "url": "https://www.avahi.org/download/avahi-0.8.tar.gz",
                    "sha256": "060309d7a333d38d951bc27598c677af1796934dbd98e1024e7ad8de798fedda",
                    "x-checker-data": {
                        "type": "anitya",
                        "project-id": "147",
                        "url-template": "https://www.avahi.org/download/avahi-$version.tar.gz"
                    }
                }
            ],
            "modules": [
                {
                    "name": "libevent",
                    "sources": [
                        {
                            "type": "archive",
                            "url": "https://github.com/libevent/libevent/releases/download/release-2.1.12-stable//libevent-2.1.12-stable.tar.gz",
                            "sha256": "92e6de1be9ec176428fd2367677e61ceffc2ee1cb119035037a27d346b0403bb",
                            "x-checker-data": {
                                "type": "anitya",
                                "project-id": "1606",
                                "url-template": "https://github.com/libevent/libevent/releases/download/release-$version-stable//libevent-$version-stable.tar.gz"
                            }
                        }
                    ]
                }
            ]
        },
        {
            "name": "nxproxy",
            "no-autogen": true,
            "make-args": [
                "build-lite",
                "PREFIX=${FLATPAK_DEST}"
            ],
            "install-rule": "install-lite",
            "sources": [
                {
                    "type": "git",
                    "url": "https://github.com/ArcticaProject/nx-libs.git",
                    "tag": "3.5.99.26",
                    "commit": "0e2b7971343845248353f6d8503e28506e9536ea",
                    "x-checker-data": {
                        "type": "git",
                        "tag-pattern": "^([\\d.]+)$"
                    }
                }
            ]
        },
        {
            "name": "pcsc",
            "config-opts": [
                "--disable-libsystemd",
                "--enable-pic",
                "--disable-libusb",
                "--enable-shared",
                "--with-systemdsystemunitdir=/app/lib/systemd/"
            ],
            "sources": [
                {
                    "type": "git",
                    "url": "https://github.com/LudovicRousseau/PCSC.git",
                    "tag": "pcsc-1.9.0",
                    "commit": "e796a0f12fbefa459bff0d25e27089615fa91f21",
                    "x-checker-data": {
                        "type": "git",
                        "tag-pattern": "^pcsc-([\\d.]+)$"
                    }
                }
            ]
        },
        {
            "name": "spice-gtk",
            "buildsystem": "meson",
            "build-options": {
                "env": {
                    "PYTHONPATH": "/app"
                }
            },
            "config-opts": [
                "-Dvapi=enabled",
                "-Dwebdav=enabled",
                "-Dgtk_doc=disabled"
            ],
            "sources": [
                {
                    "type": "archive",
                    "url": "https://www.spice-space.org/download/gtk/spice-gtk-0.39.tar.xz",
                    "sha256": "23acbee197eaaec9bce6e6bfd885bd8f79708332639243ff04833020865713cd",
                    "x-checker-data": {
                        "type": "anitya",
                        "project-id": "11576",
                        "url-template": "https://www.spice-space.org/download/gtk/spice-gtk-$version.tar.xz"
                    }
                }
            ],
            "modules": [
                {
                    "name": "python-pyparsing",
                    "buildsystem": "simple",
                    "build-commands": [
                        "pip3 install --no-deps --no-build-isolation --verbose --prefix=${FLATPAK_DEST} ."
                    ],
                    "sources": [
                        {
                            "type": "archive",
                            "url": "https://files.pythonhosted.org/packages/c1/47/dfc9c342c9842bbe0036c7f763d2d6686bcf5eb1808ba3e170afdb282210/pyparsing-2.4.7.tar.gz",
                            "sha256": "c203ec8783bf771a155b207279b9bccb8dea02d8f0c9e5f8ead507bc3246ecc1",
                            "x-checker-data": {
                                "type": "pypi",
                                "name": "pyparsing"
                            }
                        }
                    ]
                },
                {
                    "name": "libcacard",
                    "buildsystem": "meson",
                    "config-opts": [
                        "-Dpcsc=enabled",
                        "-Ddisable_tests=true"
                    ],
                    "sources": [
                        {
                            "type": "archive",
                            "url": "https://www.spice-space.org/download/libcacard/libcacard-2.8.0.tar.xz",
                            "sha256": "8005b93c3139ff739057efb19f9dac1d0993ffb0b913111505af6a91711ef22b",
                            "x-checker-data": {
                                "type": "anitya",
                                "project-id": "18776",
                                "url-template": "https://www.spice-space.org/download/libcacard/libcacard-$version.tar.xz"
                            }
                        }
                    ]
                },
                {
                    "name": "lz4",
                    "subdir": "lib",
                    "no-autogen": true,
                    "make-args": [
                        "lib"
                    ],
                    "make-install-args": [
                        "PREFIX=${FLATPAK_DEST}"
                    ],
                    "sources": [
                        {
                            "type": "archive",
                            "url": "https://github.com/lz4/lz4/archive/v1.9.3/lz4-1.9.3.tar.gz",
                            "sha256": "030644df4611007ff7dc962d981f390361e6c97a34e5cbc393ddfbe019ffe2c1",
                            "x-checker-data": {
                                "type": "anitya",
                                "project-id": "1865",
                                "url-template": "https://github.com/lz4/lz4/archive/v$version/lz4-$version.tar.gz"
                            }
                        }
                    ]
                },
                {
                    /**
                    * For webdav (shared folder) support
                    */
                    "name": "phodav",
                    "buildsystem": "meson",
                    "cleanup": [
                        "/bin",
                        "/sbin"
                    ],
                    "config-opts": [
                        "-Dgtk_doc=disabled",
                        "-Dsystemd=disabled"
                    ],
                    "sources": [
                        {
                            "type": "archive",
                            "url": "http://download.gnome.org/sources/phodav/2.5/phodav-2.5.tar.xz",
                            "sha256": "71f0a9cd70afd4dd1412a0298331dbb8ac71c0377f52117afc15eb88dc6fb910",
                            "x-checker-data": {
                                "type": "anitya",
                                "project-id": "9670",
                                "url-template": "http://download.gnome.org/sources/phodav/$version/phodav-$version.tar.xz"
                            }
                        }
                    ]
                },
                {
                    "name": "spice-protocol",
                    "buildsystem": "meson",
                    "sources": [
                        {
                            "type": "archive",
                            "url": "https://www.spice-space.org/download/releases/spice-protocol-0.14.3.tar.xz",
                            "sha256": "f986e5bc2a1598532c4897f889afb0df9257ac21c160c083703ae7c8de99487a",
                            "x-checker-data": {
                                "type": "anitya",
                                "project-id": "14892",
                                "url-template": "https://www.spice-space.org/download/releases/spice-protocol-$version.tar.xz"
                            }
                        }
                    ]
                },
                {
                    "name": "usbredir",
                    "buildsystem": "meson",
                    "config-opts": [
                        "-Dtools=disabled"
                    ],
                    "sources": [
                        {
                            "type": "git",
                            "url": "https://gitlab.freedesktop.org/spice/usbredir.git",
                            "commit": "456d2715973fa28fc4daf70378c125825645e193"
                        }
                    ]
                }
            ]
        },
        {
            "name": "libsodium",
            "sources": [
                {
                    "type": "git",
                    "url": "https://github.com/jedisct1/libsodium.git",
                    "branch": "stable",
                    "commit": "8aedf4733884a25434b5c17c79c7e7dee27e6eb0"
                }
            ],
            "post-install": [
                "install -Dm644 LICENSE ${FLATPAK_DEST}/share/licenses/libsodium/LICENSE"
            ]
        },
        {
            "name": "libssh",
            "buildsystem": "cmake-ninja",
            "builddir": true,
            "config-opts": [
                "-DCMAKE_BUILD_TYPE:STRING=Release",
                "-DWITH_NACL:BOOL=ON",
                "-DNACL_INCLUDE_DIR:PATH=/app/include/",
                "-DWITH_EXAMPLES:BOOL=OFF"
            ],
            "sources": [
                {
                    "type": "archive",
                    "url": "https://www.libssh.org/files/0.9/libssh-0.9.5.tar.xz",
                    "sha256": "acffef2da98e761fc1fd9c4fddde0f3af60ab44c4f5af05cd1b2d60a3fa08718",
                    "x-checker-data": {
                        "type": "anitya",
                        "project-id": "1729",
                        "url-template": "https://www.libssh.org/files/0.9/libssh-$version.tar.xz"
                    }
                }
            ]
        },
        {
            "name": "libvncserver",
            "buildsystem": "cmake-ninja",
            "builddir": true,
            "config-opts": [
                "-DCMAKE_BUILD_TYPE:STRING=Release"
            ],
            "cleanup": [
                "/bin",
                "/lib/libvncserver.so*"
            ],
            "sources": [
                {
                    "type": "archive",
                    "url": "https://github.com/LibVNC/libvncserver/archive/LibVNCServer-0.9.13.tar.gz",
                    "sha256": "0ae5bb9175dc0a602fe85c1cf591ac47ee5247b87f2bf164c16b05f87cbfa81a",
                    "x-checker-data": {
                        "type": "anitya",
                        "project-id": "1756",
                        "url-template": "https://github.com/LibVNC/libvncserver/archive/LibVNCServer-$version.tar.gz"
                    }
                }
            ]
        },
        {
            /**
            * Xephyr version 1.17.0 and later don't work fine with GtkSocket,
            * therefore we remain at version 1.16.4:
            *   - https://gitlab.com//Remmina//Remmina//issues//366
            *   - https://bugs.freedesktop.org//show_bug.cgi?id=91700
            */
            "name": "xephyr",
            "config-opts": [
                "--enable-kdrive",
                "--enable-kdrive-evdev",
                "--disable-kdrive-kbd",
                "--disable-kdrive-mouse",
                "--enable-xephyr",
                "--disable-xorg",
                "--disable-xvfb",
                "--disable-xnest",
                "--disable-xquartz",
                "--disable-xwayland",
                "--disable-standalone-xpbproxy",
                "--disable-xwin",
                "--disable-xfake",
                "--disable-xfbdev",
                "--disable-dmx",
                "--with-fontrootdir=/usr/share/fonts",
                "--with-xkb-bin-directory=/usr/bin",
                "--with-xkb-path=/usr/share/X11/xkb",
                "--with-xkb-output=/var/lib/xkb"
            ],
            "sources": [
                {
                    "type": "archive",
                    "url": "https://xorg.freedesktop.org/releases/individual/xserver/xorg-server-1.16.4.tar.bz2",
                    "sha256": "abb6e1cc9213a9915a121f48576ff6739a0b8cdb3d32796f9a7743c9a6efc871"
                }
            ],
            "modules": [
                {
                    "name": "libfontenc",
                    "config-opts": [
                        "--with-fontrootdir=/usr/share/fonts"
                    ],
                    "sources": [
                        {
                            "type": "archive",
                            "url": "https://xorg.freedesktop.org/releases/individual/lib/libfontenc-1.1.4.tar.bz2",
                            "sha256": "2cfcce810ddd48f2e5dc658d28c1808e86dcf303eaff16728b9aa3dbc0092079",
                            "x-checker-data": {
                                "type": "anitya",
                                "project-id": "1613",
                                "url-template": "https://xorg.freedesktop.org/releases/individual/lib/libfontenc-$version.tar.bz2"
                            }
                        }
                    ]
                },
                {
                    "name": "libXfont",
                    "sources": [
                        {
                            "type": "archive",
                            "url": "https://xorg.freedesktop.org/releases/individual/lib/libXfont-1.5.4.tar.bz2",
                            "sha256": "1a7f7490774c87f2052d146d1e0e64518d32e6848184a18654e8d0bb57883242",
                            "x-checker-data": {
                                "type": "anitya",
                                "project-id": "1776",
                                "url-template": "https://xorg.freedesktop.org/releases/individual/lib/libXfont-$version.tar.bz2"
                            }
                        }
                    ]
                }
            ]
        },
        {
            "name": "freerdp",
            "buildsystem": "cmake-ninja",
            "cleanup": [
            ],
            "config-opts": [
                "-DCMAKE_BUILD_TYPE:STRING=Release",
                "-DCMAKE_INSTALL_LIBDIR:PATH=lib",
                "-DWITH_WAYLAND:BOOL=ON",
                "-DCHANNEL_TSMF:BOOL=ON",
                "-DCHANNEL_URBDRC:BOOL=ON",
                "-DBUILD_TESTING:BOOL=OFF",
                "-DWITH_MANPAGES:BOOL=OFF",
                "-DWITH_GSSAPI:BOOL=OFF",
                "-DWITH_PCSC:BOOL=ON",
                "-DWITH_SERVER:BOOL=OFF",
                "-DWITH_CUPS:BOOL=ON",
                "-DWITH_FFMPEG:BOOL=ON",
                "-DWITH_OSS:BOOL=OFF",
                "-DWITH_PULSE:BOOL=ON",
                "-DWITH_CHANNELS:BOOL=ON",
                "-DWITH_LIBSYSTEMD:BOOL=OFF"
            ],
            "sources": [
                {
                    "type": "git",
                    "url": "https://github.com/FreeRDP/FreeRDP.git",
                    "tag": "2.3.1",
                    "commit": "136a58fbd0c3c2421a4e02d6422119406f1c32c2",
                    "x-checker-data": {
                        "type": "git",
                        "tag-pattern": "^([\\d.]+)$"
                    }
                }
            ]
        },
        {
            /* Remmina main build */
            "name": "remmina",
            "buildsystem": "cmake-ninja",
            "cleanup": [
                "/bin/remmina-gnome",
                "/bin/gnome-session-remmina",
                "/share/applications/remmina-gnome.desktop"
            ],
            "config-opts": [
                "-DCMAKE_BUILD_TYPE:STRING=Release",
                "-DWITH_NEWS:BOOL=ON",
                "-DCMAKE_INSTALL_LIBDIR:PATH=lib",
                "-DWITH_FREERDP3:BOOL=OFF",
                "-DWITH_GVNC:BOOL=ON",
                "-DWITH_CUPS:BOOL=ON",
                "-DWITH_MANPAGES:BOOL=OFF"
            ],
            "sources": [
                {
                    "type": "git",
                    "url": "https://gitlab.com/Remmina/Remmina.git",
                    "branch": "master"
                }
            ]
        }
    ]
}
